name,age,email,mobileno,profession
Vishwanath Seshagiri,15,sevenup13@gmail.com,9500011210,Lolcats
Vishwanath Seshagiri,20,sevenup13@gmail.com,9500011210,Student
Don,25,lol@gmail.co,89839123,Cobbler
